alias chmodOk="chmod +x * ; chmod o-w *"
alias lo=libreoffice
alias gi="cd /media/arun/Ignitarium/projects/audio_TI"
alias nt="nautilus . >& /dev/null &"
alias disp=eog
alias ev=evince
alias imageToPdf=convert
alias ls='ls --color=yes'
alias enw='emacsclient -nw'
alias so=source
alias l='ls -ltrh'
alias p='pwd'
alias la='ls  -a'
alias c='clear'
alias wh=which
alias e=emacs 
alias hi='history 100'
alias h=history
alias pd=pushd
alias dir='l | grep "^d"= '
alias ll='ls -l -h --color=tty'
alias ks=ls
#alias less  'more \!* | \less'
alias cd2='cd ../../'
alias cd3='cd ../../../'
alias cd4='cd ../../../../'
alias fi="find ./* -name "

